{
  "interactionModel": {
    "languageModel": {
      "invocationName": "scooter finder",
      "intents": [
        {
          "name": "FindScooterIntent",
          "samples": [
            "search",
            "find nearest scooter",
            "find closest scooter",
            "find closest voi",
            "find voi",
            "scooter",
            "voi scooter",
            "find scooter",
            "for a scooter",
            "where is the closest scooter",
            "where is the nearest scooter",
            "wheres the nearest scooter",
            "wheres the closest scooter"
          ],
          "slots": []
        },
        {
          "name": "AMAZON.CancelIntent",
          "samples": []
        },
        {
          "name": "AMAZON.HelpIntent",
          "samples": []
        },
        {
          "name": "AMAZON.StopIntent",
          "samples": []
        }
      ]
    }
  }
}